…
# Print combined comparison table
print("Comparison of EFA Loadings Across Surveys:")
```

    ## [1] "Comparison of EFA Loadings Across Surveys:"

``` r
print(comparison_table)
```

    ## # A tibble: 84 × 4
    ##    Survey   Variable Factor  Loading
    ##    <chr>    <chr>    <chr>     <dbl>
    ##  1 English  FS_1     MR1    -0.00372
    ##  2 English  FS_1     MR2     0.773  
    ##  3 Hindi    FS_1     MR1     0.909  
    ##  4 Hindi    FS_1     MR2     0.263  
    ##  5 Mandarin FS_1     MR1     0.649  
    ##  6 Mandarin FS_1     MR2     0.328  
    ##  7 English  FS_2     MR1     0.0935 
    ##  8 English  FS_2     MR2     0.721  
    ##  9 Hindi    FS_2     MR1     0.867  
    ## 10 Hindi    FS_2     MR2     0.306  
    ## # ℹ 74 more rows
…
